id,label,name
"1,26500167769173E+018",Pharrell59, マチウ ⛩
"1,2648611825167E+018",BidhanJacobs,Bidhan Jacobs
"1,26484992737878E+018",lguerin27,lguerin
"1,26484495756471E+018",mathdenel,Mathieu Denel
"1,26484491780694E+018",WikiGrenoble,Wikimedia Grenoble
"1,26484464529464E+018",reyman64,reyman
"1,26484350692272E+018",Amugnier,Aude Mugnier
"1,26484330454342E+018",amarois,(((Alain Marois)))
"1,26484152016481E+018",Wikimedia_Fr,Wikimédia France
"1,26431773580012E+018",pattdjo,Pattery johny
"1,25779772207529E+018",MichleBourgeoi2,Michèle Bourgeois
"1,25778047753824E+018",olberger,Olivier Berger aka obergix
"1,25775658089386E+018",__bjean__,Benjamin Jean
"1,25758691254351E+018",RaphaelPouye,Raphaël Pouyé
"1,2573452461046E+018",EnsambleFr,Ensamble.
"1,25733735518428E+018",BeatriceCarpy,Beatrice CARPY
"1,25733025720553E+018",Open_coParis,OpenCollective Paris
"1,25728862218272E+018",Andre0Ani,Patrice Andreani
"1,25728387049349E+018",ValentinChaput,Valentin Chaput
"1,25727677105934E+018",DemocracyOS_FR,DemocracyOS France
"1,25727652422454E+018",eloise_gabadou,Eloïse Gabadou
"1,25726960485182E+018",PierreLouisR,Pierre-Louis Rolle
"1,25726731435498E+018",Ma_Billard1,Marianne Billard
"1,25726572148841E+018",LaLoiDesOurs,LaLoiDesOurs
"1,25726397232523E+018",CaroCorbal,Caroline Corbal
"1,25726376862466E+018",JohanRicher,Johan Richer
"1,25726243221449E+018",CodeForFR,Code for France
"1,25586443521163E+018",ValentinChaput,Valentin Chaput
"1,25583101274087E+018",CaroCorbal,Caroline Corbal
"1,25574989641565E+018",pascal_baratoux,Pascal Baratoux 🇪🇺🚀
"1,25574836288589E+018",mariemini,Marie
"1,25574107633968E+018",PortraitMichel,Michel Portrait
"1,25573945276642E+018",Arawa_fr,Arawa
"1,25568183201795E+018",jami_social,jami
"1,25568168142566E+018",canadadri,Christophe Villemer
"1,25565115945023E+018",BoFFire_,蝶
"1,25562435465157E+018",GULLANDES,GULL@ИDΞS
"1,25560796740107E+018",pierrebod,Pierre Baudracco
"1,25553971357596E+018",IngridMomein,Ingrid Momein
"1,25553678619923E+018",Vic_Bioinfo,Vic_Bioinfo
"1,25553615262865E+018",ObliCold,Oblicold
"1,25553407786999E+018",numericatous,Numericatous
"1,25552975160064E+018",pierrepo,Pierre Poulain
"1,25552574274782E+018",olberger,Olivier Berger aka obergix
"1,25551957165989E+018",BiodanzaF,Biodanza France
"1,25549893617501E+018",framasoft,Framasoft
"1,25549030027502E+018",t_demaret,TDemaret
"1,2554879546147E+018",Shnoulle,Shnoulle (T)
"1,25548750929708E+018",FondsLaw,Fonds de dotation Open Law
"1,25548604821961E+018",Bascoulard,Pascal 🔹
"1,25548516252516E+018",NicolasLoubet,Nicolas Loubet
"1,25548384106784E+018",SimonClavier,Simon Clavier @SNCF
"1,25547555458685E+018",__bjean__,Benjamin Jean
"1,25547247512051E+018",HackResearch,HackYourReseach
"1,25546970673727E+018",BrunschweilerC,C. Brunschweiler
"1,2554686821989E+018",VBchlt,Vincent Bachelet
"1,25545696814953E+018",Camille_OS,CamilleM
"1,25545082122507E+018",mosieurj,Môsieur J.
"1,25545061217673E+018",Calimaq,S.I.Lex
"1,25544972915832E+018",SeillierR,Rémy Seillier
"1,2554479682469E+018",Inno_3,Inno³
"1,2554141355312E+018",SVTux,Frédéric Véron
