{"created_at": "Sat May 02 16:46:05 +0000 2020", "id": 1256626022193209345, "id_str": "1256626022193209345", "full_text": "M\u00e9morandum Covid-19 pour du libre et de l\u2019open en conscience\u00a0: enseignements et impulsions futures https://t.co/J8Bamyc3tS", "truncated": false, "display_text_range": [0, 122], "entities": {"hashtags": [], "symbols": [], "user_mentions": [], "urls": [{"url": "https://t.co/J8Bamyc3tS", "expanded_url": "http://getpocket.com/@Mozinet/share/4799199", "display_url": "getpocket.com/@Mozinet/share\u2026", "indices": [99, 122]}]}, "metadata": {"iso_language_code": "fr", "result_type": "recent"}, "source": "<a href=\"https://getpocket.com\" rel=\"nofollow\">Pocket: Save. Read. Grow.</a>", "in_reply_to_status_id": null, "in_reply_to_status_id_str": null, "in_reply_to_user_id": null, "in_reply_to_user_id_str": null, "in_reply_to_screen_name": null, "user": {"id": 42950635, "id_str": "42950635", "name": "Mozinet", "screen_name": "Mozinet", "location": "Melun, France", "description": "Navigateurs web, surtout @Firefox, Internet, dont @Mozilla, communication @mozilla_fr, derri\u00e8re @MozillaZineFr @ThunderbirdFr ; langue fr \ud83c\uddeb\ud83c\uddf7, droit \u2696\ufe0f & \u2615\ufe0f\ud83c\udf75\ud83c\udf7a\ud83d\udcf7\ud83d\udd2d", "url": "http://t.co/Hd0MpzVLI4", "entities": {"url": {"urls": [{"url": "http://t.co/Hd0MpzVLI4", "expanded_url": "http://blogzinet.free.fr/blog/", "display_url": "blogzinet.free.fr/blog/", "indices": [0, 22]}]}, "description": {"urls": []}}, "protected": false, "followers_count": 355, "friends_count": 231, "listed_count": 79, "created_at": "Wed May 27 19:18:11 +0000 2009", "favourites_count": 16250, "utc_offset": null, "time_zone": null, "geo_enabled": false, "verified": false, "statuses_count": 23697, "lang": null, "contributors_enabled": false, "is_translator": false, "is_translation_enabled": false, "profile_background_color": "1A1B1F", "profile_background_image_url": "http://abs.twimg.com/images/themes/theme9/bg.gif", "profile_background_image_url_https": "https://abs.twimg.com/images/themes/theme9/bg.gif", "profile_background_tile": false, "profile_image_url": "http://pbs.twimg.com/profile_images/1201096435/gecko-carre_normal.png", "profile_image_url_https": "https://pbs.twimg.com/profile_images/1201096435/gecko-carre_normal.png", "profile_banner_url": "https://pbs.twimg.com/profile_banners/42950635/1397163738", "profile_link_color": "800000", "profile_sidebar_border_color": "181A1E", "profile_sidebar_fill_color": "252429", "profile_text_color": "CC3300", "profile_use_background_image": true, "has_extended_profile": false, "default_profile": false, "default_profile_image": false, "following": false, "follow_request_sent": false, "notifications": false, "translator_type": "none"}, "geo": null, "coordinates": null, "place": null, "contributors": null, "is_quote_status": false, "retweet_count": 0, "favorite_count": 0, "favorited": false, "retweeted": false, "possibly_sensitive": false, "lang": "fr"}
{"created_at": "Thu Apr 30 14:37:14 +0000 2020", "id": 1255868822046871552, "id_str": "1255868822046871552", "full_text": "M\u00e9morandum Covid-19 pour du libre et de l\u2019open en conscience : enseignements et impulsions futures \u2013 Framablog https://t.co/0FD3YNeLsG", "truncated": false, "display_text_range": [0, 134], "entities": {"hashtags": [], "symbols": [], "user_mentions": [], "urls": [{"url": "https://t.co/0FD3YNeLsG", "expanded_url": "https://framablog.org/2020/04/29/memorandum-covid-19-pour-du-libre-et-de-lopen-en-conscience-enseignements-et-impulsions-futures/", "display_url": "framablog.org/2020/04/29/mem\u2026", "indices": [111, 134]}]}, "metadata": {"iso_language_code": "fr", "result_type": "recent"}, "source": "<a href=\"https://crossposter.masto.donte.com.br\" rel=\"nofollow\">Mastodon-Twitter Crossposter</a>", "in_reply_to_status_id": null, "in_reply_to_status_id_str": null, "in_reply_to_user_id": null, "in_reply_to_user_id_str": null, "in_reply_to_screen_name": null, "user": {"id": 194515106, "id_str": "194515106", "name": "Kevin O. [Mastodon]", "screen_name": "dr_ervin", "location": "France", "description": "Toot from Mastodon https://t.co/so9F19BppE and barely present on Twitter anymore", "url": "http://t.co/3jz06YweeE", "entities": {"url": {"urls": [{"url": "http://t.co/3jz06YweeE", "expanded_url": "http://ervin.ipsquad.net", "display_url": "ervin.ipsquad.net", "indices": [0, 22]}]}, "description": {"urls": [{"url": "https://t.co/so9F19BppE", "expanded_url": "https://mamot.fr/@ervin", "display_url": "mamot.fr/@ervin", "indices": [19, 42]}]}}, "protected": false, "followers_count": 303, "friends_count": 57, "listed_count": 32, "created_at": "Fri Sep 24 09:45:40 +0000 2010", "favourites_count": 22, "utc_offset": null, "time_zone": null, "geo_enabled": false, "verified": false, "statuses_count": 1285, "lang": null, "contributors_enabled": false, "is_translator": false, "is_translation_enabled": false, "profile_background_color": "C0DEED", "profile_background_image_url": "http://abs.twimg.com/images/themes/theme1/bg.png", "profile_background_image_url_https": "https://abs.twimg.com/images/themes/theme1/bg.png", "profile_background_tile": false, "profile_image_url": "http://pbs.twimg.com/profile_images/1130185536/ervin_corner_small_normal.png", "profile_image_url_https": "https://pbs.twimg.com/profile_images/1130185536/ervin_corner_small_normal.png", "profile_link_color": "1DA1F2", "profile_sidebar_border_color": "C0DEED", "profile_sidebar_fill_color": "DDEEF6", "profile_text_color": "333333", "profile_use_background_image": true, "has_extended_profile": false, "default_profile": true, "default_profile_image": false, "following": false, "follow_request_sent": false, "notifications": false, "translator_type": "none"}, "geo": null, "coordinates": null, "place": null, "contributors": null, "is_quote_status": false, "retweet_count": 0, "favorite_count": 0, "favorited": false, "retweeted": false, "possibly_sensitive": false, "lang": "fr"}
{"created_at": "Thu Apr 30 07:24:41 +0000 2020", "id": 1255759967442931712, "id_str": "1255759967442931712", "full_text": "Ouverture et communs. https://t.co/08cEaPESqY", "truncated": false, "display_text_range": [0, 45], "entities": {"hashtags": [], "symbols": [], "user_mentions": [], "urls": [{"url": "https://t.co/08cEaPESqY", "expanded_url": "https://framablog.org/2020/04/29/memorandum-covid-19-pour-du-libre-et-de-lopen-en-conscience-enseignements-et-impulsions-futures/", "display_url": "framablog.org/2020/04/29/mem\u2026", "indices": [22, 45]}]}, "metadata": {"iso_language_code": "fr", "result_type": "recent"}, "source": "<a href=\"https://mobile.twitter.com\" rel=\"nofollow\">Twitter Web App</a>", "in_reply_to_status_id": null, "in_reply_to_status_id_str": null, "in_reply_to_user_id": null, "in_reply_to_user_id_str": null, "in_reply_to_screen_name": null, "user": {"id": 3350958849, "id_str": "3350958849", "name": "Antoine Cailly", "screen_name": "AntoineCailly", "location": "", "description": "Curious and passionate software developer @ZenikaRennes\n\"There is nothing so useless as doing efficiently that which should not be done at all\"", "url": "https://t.co/RrVScEKK1u", "entities": {"url": {"urls": [{"url": "https://t.co/RrVScEKK1u", "expanded_url": "https://acailly.github.io/", "display_url": "acailly.github.io", "indices": [0, 23]}]}, "description": {"urls": []}}, "protected": false, "followers_count": 131, "friends_count": 46, "listed_count": 2, "created_at": "Mon Jun 29 18:08:04 +0000 2015", "favourites_count": 285, "utc_offset": null, "time_zone": null, "geo_enabled": false, "verified": false, "statuses_count": 760, "lang": null, "contributors_enabled": false, "is_translator": false, "is_translation_enabled": false, "profile_background_color": "C0DEED", "profile_background_image_url": "http://abs.twimg.com/images/themes/theme1/bg.png", "profile_background_image_url_https": "https://abs.twimg.com/images/themes/theme1/bg.png", "profile_background_tile": false, "profile_image_url": "http://pbs.twimg.com/profile_images/859128060251123712/IDAajk_y_normal.jpg", "profile_image_url_https": "https://pbs.twimg.com/profile_images/859128060251123712/IDAajk_y_normal.jpg", "profile_link_color": "1DA1F2", "profile_sidebar_border_color": "C0DEED", "profile_sidebar_fill_color": "DDEEF6", "profile_text_color": "333333", "profile_use_background_image": true, "has_extended_profile": false, "default_profile": true, "default_profile_image": false, "following": false, "follow_request_sent": false, "notifications": false, "translator_type": "none"}, "geo": null, "coordinates": null, "place": null, "contributors": null, "is_quote_status": false, "retweet_count": 0, "favorite_count": 0, "favorited": false, "retweeted": false, "possibly_sensitive": false, "lang": "fr"}
{"created_at": "Thu Apr 30 00:15:59 +0000 2020", "id": 1255652082046115841, "id_str": "1255652082046115841", "full_text": "RT @framasoft: \u00ab M\u00e9morandum Covid-19 pour du libre et de l\u2019open en conscience : enseignements et impulsions futures \u00bb, texte collectif sout\u2026", "truncated": false, "display_text_range": [0, 140], "entities": {"hashtags": [], "symbols": [], "user_mentions": [{"screen_name": "framasoft", "name": "Framasoft", "id": 18230705, "id_str": "18230705", "indices": [3, 13]}], "urls": []}, "metadata": {"iso_language_code": "fr", "result_type": "recent"}, "source": "<a href=\"https://mobile.twitter.com\" rel=\"nofollow\">Twitter Web App</a>", "in_reply_to_status_id": null, "in_reply_to_status_id_str": null, "in_reply_to_user_id": null, "in_reply_to_user_id_str": null, "in_reply_to_screen_name": null, "user": {"id": 1232992953645355009, "id_str": "1232992953645355009", "name": "\u8776 Revolution TaskForceDZ", "screen_name": "BoFFire_", "location": "Internets", "description": "Je traduis des logiciels libres.\nNe regarde pas, comme \u00e7a, mon profil. Cr\u00e9\u00e9 un compte #Mastodon.\nBanner thanks to @kdjdz\nxmpp:butterflyoffire@hostux.im", "url": "https://t.co/iJnkq0H1qP", "entities": {"url": {"urls": [{"url": "https://t.co/iJnkq0H1qP", "expanded_url": "https://mstdn.fr/@butterflyoffire", "display_url": "mstdn.fr/@butterflyoffi\u2026", "indices": [0, 23]}]}, "description": {"urls": []}}, "protected": false, "followers_count": 331, "friends_count": 341, "listed_count": 3, "created_at": "Thu Feb 27 11:38:01 +0000 2020", "favourites_count": 3854, "utc_offset": null, "time_zone": null, "geo_enabled": false, "verified": false, "statuses_count": 6615, "lang": null, "contributors_enabled": false, "is_translator": false, "is_translation_enabled": false, "profile_background_color": "F5F8FA", "profile_background_image_url": null, "profile_background_image_url_https": null, "profile_background_tile": false, "profile_image_url": "http://pbs.twimg.com/profile_images/1256595614873329664/xF-chYjs_normal.png", "profile_image_url_https": "https://pbs.twimg.com/profile_images/1256595614873329664/xF-chYjs_normal.png", "profile_banner_url": "https://pbs.twimg.com/profile_banners/1232992953645355009/1582804070", "profile_link_color": "1DA1F2", "profile_sidebar_border_color": "C0DEED", "profile_sidebar_fill_color": "DDEEF6", "profile_text_color": "333333", "profile_use_background_image": true, "has_extended_profile": false, "default_profile": true, "default_profile_image": false, "following": false, "follow_request_sent": false, "notifications": false, "translator_type": "none"}, "geo": null, "coordinates": null, "place": null, "contributors": null, "retweeted_status": {"created_at": "Wed Apr 29 08:30:05 +0000 2020", "id": 1255414036927336449, "id_str": "1255414036927336449", "full_text": "\u00ab M\u00e9morandum Covid-19 pour du libre et de l\u2019open en conscience : enseignements et impulsions futures \u00bb, texte collectif soutenu par de multiples acteur\u22c5ices du libre (dont @framasoft ).\n\nhttps://t.co/lEB758I73P https://t.co/4RdAkAmcb3", "truncated": false, "display_text_range": [0, 210], "entities": {"hashtags": [], "symbols": [], "user_mentions": [{"screen_name": "framasoft", "name": "Framasoft", "id": 18230705, "id_str": "18230705", "indices": [172, 182]}], "urls": [{"url": "https://t.co/lEB758I73P", "expanded_url": "https://framablog.org/2020/04/29/memorandum-covid-19-pour-du-libre-et-de-lopen-en-conscience-enseignements-et-impulsions-futures/", "display_url": "framablog.org/2020/04/29/mem\u2026", "indices": [187, 210]}], "media": [{"id": 1255413725105917952, "id_str": "1255413725105917952", "indices": [211, 234], "media_url": "http://pbs.twimg.com/media/EWwgIasWkAAKqxR.jpg", "media_url_https": "https://pbs.twimg.com/media/EWwgIasWkAAKqxR.jpg", "url": "https://t.co/4RdAkAmcb3", "display_url": "pic.twitter.com/4RdAkAmcb3", "expanded_url": "https://twitter.com/framasoft/status/1255414036927336449/photo/1", "type": "photo", "sizes": {"medium": {"w": 1200, "h": 786, "resize": "fit"}, "thumb": {"w": 150, "h": 150, "resize": "crop"}, "small": {"w": 680, "h": 445, "resize": "fit"}, "large": {"w": 2048, "h": 1341, "resize": "fit"}}}]}, "extended_entities": {"media": [{"id": 1255413725105917952, "id_str": "1255413725105917952", "indices": [211, 234], "media_url": "http://pbs.twimg.com/media/EWwgIasWkAAKqxR.jpg", "media_url_https": "https://pbs.twimg.com/media/EWwgIasWkAAKqxR.jpg", "url": "https://t.co/4RdAkAmcb3", "display_url": "pic.twitter.com/4RdAkAmcb3", "expanded_url": "https://twitter.com/framasoft/status/1255414036927336449/photo/1", "type": "photo", "sizes": {"medium": {"w": 1200, "h": 786, "resize": "fit"}, "thumb": {"w": 150, "h": 150, "resize": "crop"}, "small": {"w": 680, "h": 445, "resize": "fit"}, "large": {"w": 2048, "h": 1341, "resize": "fit"}}}]}, "metadata": {"iso_language_code": "fr", "result_type": "recent"}, "source": "<a href=\"https://about.twitter.com/products/tweetdeck\" rel=\"nofollow\">TweetDeck</a>", "in_reply_to_status_id": null, "in_reply_to_status_id_str": null, "in_reply_to_user_id": null, "in_reply_to_user_id_str": null, "in_reply_to_screen_name": null, "user": {"id": 18230705, "id_str": "18230705", "name": "Framasoft", "screen_name": "framasoft", "location": "127.0.0.1", "description": "La route est longue mais la voie est libre\u2026\nBesoin d'aide ou d'entraide ? https://t.co/TsmZqyTArH\n\u26a0\ufe0f PAS DE SUPPORT SUR TWITTER ! \u26a0\ufe0f", "url": "http://t.co/DHJXjbWO8q", "entities": {"url": {"urls": [{"url": "http://t.co/DHJXjbWO8q", "expanded_url": "http://www.framasoft.org", "display_url": "framasoft.org", "indices": [0, 22]}]}, "description": {"urls": [{"url": "https://t.co/TsmZqyTArH", "expanded_url": "https://framacolibri.org/c/entraide/", "display_url": "framacolibri.org/c/entraide/", "indices": [74, 97]}]}}, "protected": false, "followers_count": 32095, "friends_count": 401, "listed_count": 1344, "created_at": "Fri Dec 19 01:15:26 +0000 2008", "favourites_count": 8088, "utc_offset": null, "time_zone": null, "geo_enabled": false, "verified": false, "statuses_count": 18979, "lang": null, "contributors_enabled": false, "is_translator": false, "is_translation_enabled": false, "profile_background_color": "000000", "profile_background_image_url": "http://abs.twimg.com/images/themes/theme6/bg.gif", "profile_background_image_url_https": "https://abs.twimg.com/images/themes/theme6/bg.gif", "profile_background_tile": false, "profile_image_url": "http://pbs.twimg.com/profile_images/1108993170120019968/25bIPYmm_normal.png", "profile_image_url_https": "https://pbs.twimg.com/profile_images/1108993170120019968/25bIPYmm_normal.png", "profile_banner_url": "https://pbs.twimg.com/profile_banners/18230705/1553239531", "profile_link_color": "0084B4", "profile_sidebar_border_color": "A4A4DF", "profile_sidebar_fill_color": "C4C4FF", "profile_text_color": "6B6880", "profile_use_background_image": true, "has_extended_profile": false, "default_profile": false, "default_profile_image": false, "following": true, "follow_request_sent": false, "notifications": false, "translator_type": "none"}, "geo": null, "coordinates": null, "place": null, "contributors": null, "is_quote_status": false, "retweet_count": 8, "favorite_count": 7, "favorited": false, "retweeted": false, "possibly_sensitive": false, "lang": "fr"}, "is_quote_status": false, "retweet_count": 8, "favorite_count": 0, "favorited": false, "retweeted": false, "lang": "fr"}
{"created_at": "Wed Apr 29 22:12:14 +0000 2020", "id": 1255620937736761344, "id_str": "1255620937736761344", "full_text": "RT @framasoft: \u00ab M\u00e9morandum Covid-19 pour du libre et de l\u2019open en conscience : enseignements et impulsions futures \u00bb, texte collectif sout\u2026", "truncated": false, "display_text_range": [0, 140], "entities": {"hashtags": [], "symbols": [], "user_mentions": [{"screen_name": "framasoft", "name": "Framasoft", "id": 18230705, "id_str": "18230705", "indices": [3, 13]}], "urls": []}, "metadata": {"iso_language_code": "fr", "result_type": "recent"}, "source": "<a href=\"http://twitter.com/download/android\" rel=\"nofollow\">Twitter for Android</a>", "in_reply_to_status_id": null, "in_reply_to_status_id_str": null, "in_reply_to_user_id": null, "in_reply_to_user_id_str": null, "in_reply_to_screen_name": null, "user": {"id": 995737884, "id_str": "995737884", "name": "Fr\u00e9d\u00e9ric Villaum\u00e9", "screen_name": "FredVillaume", "location": "Lyon, France", "description": "Directeur du @GRAINE_ARA #EEDD #R\u00e9seauxEEDD", "url": "https://t.co/Nm6jaOrEXo", "entities": {"url": {"urls": [{"url": "https://t.co/Nm6jaOrEXo", "expanded_url": "http://www.graine-auvergne-rhone-alpes.org", "display_url": "graine-auvergne-rhone-alpes.org", "indices": [0, 23]}]}, "description": {"urls": []}}, "protected": false, "followers_count": 230, "friends_count": 577, "listed_count": 11, "created_at": "Fri Dec 07 19:51:51 +0000 2012", "favourites_count": 365, "utc_offset": null, "time_zone": null, "geo_enabled": true, "verified": false, "statuses_count": 1380, "lang": null, "contributors_enabled": false, "is_translator": false, "is_translation_enabled": false, "profile_background_color": "C0DEED", "profile_background_image_url": "http://abs.twimg.com/images/themes/theme1/bg.png", "profile_background_image_url_https": "https://abs.twimg.com/images/themes/theme1/bg.png", "profile_background_tile": false, "profile_image_url": "http://pbs.twimg.com/profile_images/958016039996084225/TNNtrMmq_normal.jpg", "profile_image_url_https": "https://pbs.twimg.com/profile_images/958016039996084225/TNNtrMmq_normal.jpg", "profile_banner_url": "https://pbs.twimg.com/profile_banners/995737884/1354998288", "profile_link_color": "1DA1F2", "profile_sidebar_border_color": "C0DEED", "profile_sidebar_fill_color": "DDEEF6", "profile_text_color": "333333", "profile_use_background_image": true, "has_extended_profile": false, "default_profile": true, "default_profile_image": false, "following": false, "follow_request_sent": false, "notifications": false, "translator_type": "none"}, "geo": null, "coordinates": null, "place": null, "contributors": null, "retweeted_status": {"created_at": "Wed Apr 29 08:30:05 +0000 2020", "id": 1255414036927336449, "id_str": "1255414036927336449", "full_text": "\u00ab M\u00e9morandum Covid-19 pour du libre et de l\u2019open en conscience : enseignements et impulsions futures \u00bb, texte collectif soutenu par de multiples acteur\u22c5ices du libre (dont @framasoft ).\n\nhttps://t.co/lEB758I73P https://t.co/4RdAkAmcb3", "truncated": false, "display_text_range": [0, 210], "entities": {"hashtags": [], "symbols": [], "user_mentions": [{"screen_name": "framasoft", "name": "Framasoft", "id": 18230705, "id_str": "18230705", "indices": [172, 182]}], "urls": [{"url": "https://t.co/lEB758I73P", "expanded_url": "https://framablog.org/2020/04/29/memorandum-covid-19-pour-du-libre-et-de-lopen-en-conscience-enseignements-et-impulsions-futures/", "display_url": "framablog.org/2020/04/29/mem\u2026", "indices": [187, 210]}], "media": [{"id": 1255413725105917952, "id_str": "1255413725105917952", "indices": [211, 234], "media_url": "http://pbs.twimg.com/media/EWwgIasWkAAKqxR.jpg", "media_url_https": "https://pbs.twimg.com/media/EWwgIasWkAAKqxR.jpg", "url": "https://t.co/4RdAkAmcb3", "display_url": "pic.twitter.com/4RdAkAmcb3", "expanded_url": "https://twitter.com/framasoft/status/1255414036927336449/photo/1", "type": "photo", "sizes": {"medium": {"w": 1200, "h": 786, "resize": "fit"}, "thumb": {"w": 150, "h": 150, "resize": "crop"}, "small": {"w": 680, "h": 445, "resize": "fit"}, "large": {"w": 2048, "h": 1341, "resize": "fit"}}}]}, "extended_entities": {"media": [{"id": 1255413725105917952, "id_str": "1255413725105917952", "indices": [211, 234], "media_url": "http://pbs.twimg.com/media/EWwgIasWkAAKqxR.jpg", "media_url_https": "https://pbs.twimg.com/media/EWwgIasWkAAKqxR.jpg", "url": "https://t.co/4RdAkAmcb3", "display_url": "pic.twitter.com/4RdAkAmcb3", "expanded_url": "https://twitter.com/framasoft/status/1255414036927336449/photo/1", "type": "photo", "sizes": {"medium": {"w": 1200, "h": 786, "resize": "fit"}, "thumb": {"w": 150, "h": 150, "resize": "crop"}, "small": {"w": 680, "h": 445, "resize": "fit"}, "large": {"w": 2048, "h": 1341, "resize": "fit"}}}]}, "metadata": {"iso_language_code": "fr", "result_type": "recent"}, "source": "<a href=\"https://about.twitter.com/products/tweetdeck\" rel=\"nofollow\">TweetDeck</a>", "in_reply_to_status_id": null, "in_reply_to_status_id_str": null, "in_reply_to_user_id": null, "in_reply_to_user_id_str": null, "in_reply_to_screen_name": null, "user": {"id": 18230705, "id_str": "18230705", "name": "Framasoft", "screen_name": "framasoft", "location": "127.0.0.1", "description": "La route est longue mais la voie est libre\u2026\nBesoin d'aide ou d'entraide ? https://t.co/TsmZqyTArH\n\u26a0\ufe0f PAS DE SUPPORT SUR TWITTER ! \u26a0\ufe0f", "url": "http://t.co/DHJXjbWO8q", "entities": {"url": {"urls": [{"url": "http://t.co/DHJXjbWO8q", "expanded_url": "http://www.framasoft.org", "display_url": "framasoft.org", "indices": [0, 22]}]}, "description": {"urls": [{"url": "https://t.co/TsmZqyTArH", "expanded_url": "https://framacolibri.org/c/entraide/", "display_url": "framacolibri.org/c/entraide/", "indices": [74, 97]}]}}, "protected": false, "followers_count": 32095, "friends_count": 401, "listed_count": 1344, "created_at": "Fri Dec 19 01:15:26 +0000 2008", "favourites_count": 8088, "utc_offset": null, "time_zone": null, "geo_enabled": false, "verified": false, "statuses_count": 18979, "lang": null, "contributors_enabled": false, "is_translator": false, "is_translation_enabled": false, "profile_background_color": "000000", "profile_background_image_url": "http://abs.twimg.com/images/themes/theme6/bg.gif", "profile_background_image_url_https": "https://abs.twimg.com/images/themes/theme6/bg.gif", "profile_background_tile": false, "profile_image_url": "http://pbs.twimg.com/profile_images/1108993170120019968/25bIPYmm_normal.png", "profile_image_url_https": "https://pbs.twimg.com/profile_images/1108993170120019968/25bIPYmm_normal.png", "profile_banner_url": "https://pbs.twimg.com/profile_banners/18230705/1553239531", "profile_link_color": "0084B4", "profile_sidebar_border_color": "A4A4DF", "profile_sidebar_fill_color": "C4C4FF", "profile_text_color": "6B6880", "profile_use_background_image": true, "has_extended_profile": false, "default_profile": false, "default_profile_image": false, "following": true, "follow_request_sent": false, "notifications": false, "translator_type": "none"}, "geo": null, "coordinates": null, "place": null, "contributors": null, "is_quote_status": false, "retweet_count": 8, "favorite_count": 7, "favorited": false, "retweeted": false, "possibly_sensitive": false, "lang": "fr"}, "is_quote_status": false, "retweet_count": 8, "favorite_count": 0, "favorited": false, "retweeted": false, "lang": "fr"}
{"created_at": "Wed Apr 29 17:45:29 +0000 2020", "id": 1255553806546460675, "id_str": "1255553806546460675", "full_text": "M\u00e9morandum Covid-19 pour du libre et de l\u2019open en conscience : enseignements et impulsions futures\nhttps://t.co/xo3LI89LwV", "truncated": false, "display_text_range": [0, 122], "entities": {"hashtags": [], "symbols": [], "user_mentions": [], "urls": [{"url": "https://t.co/xo3LI89LwV", "expanded_url": "https://framablog.org/2020/04/29/memorandum-covid-19-pour-du-libre-et-de-lopen-en-conscience-enseignements-et-impulsions-futures/", "display_url": "framablog.org/2020/04/29/mem\u2026", "indices": [99, 122]}]}, "metadata": {"iso_language_code": "fr", "result_type": "recent"}, "source": "<a href=\"https://mobile.twitter.com\" rel=\"nofollow\">Twitter Web App</a>", "in_reply_to_status_id": null, "in_reply_to_status_id_str": null, "in_reply_to_user_id": null, "in_reply_to_user_id_str": null, "in_reply_to_screen_name": null, "user": {"id": 33630031, "id_str": "33630031", "name": "Laurent Duval", "screen_name": "laurentduval", "location": "Nanterre, France", "description": "Research amateur: signal, image, #data, #wavelet, #anagram, history of science. Terrible puns, radio & music, aquatic animal. Opinions are mine", "url": "https://t.co/cdOfSvcUxX", "entities": {"url": {"urls": [{"url": "https://t.co/cdOfSvcUxX", "expanded_url": "http://www.laurent-duval.eu/lcd-publications.html", "display_url": "laurent-duval.eu/lcd-publicatio\u2026", "indices": [0, 23]}]}, "description": {"urls": []}}, "protected": false, "followers_count": 589, "friends_count": 363, "listed_count": 117, "created_at": "Mon Apr 20 19:28:20 +0000 2009", "favourites_count": 4984, "utc_offset": null, "time_zone": null, "geo_enabled": false, "verified": false, "statuses_count": 9944, "lang": null, "contributors_enabled": false, "is_translator": false, "is_translation_enabled": false, "profile_background_color": "000000", "profile_background_image_url": "http://abs.twimg.com/images/themes/theme14/bg.gif", "profile_background_image_url_https": "https://abs.twimg.com/images/themes/theme14/bg.gif", "profile_background_tile": false, "profile_image_url": "http://pbs.twimg.com/profile_images/1047305576/Duval__Laurent_-_Plong_e_-_Val_Andr__-_003-cut_normal.jpg", "profile_image_url_https": "https://pbs.twimg.com/profile_images/1047305576/Duval__Laurent_-_Plong_e_-_Val_Andr__-_003-cut_normal.jpg", "profile_banner_url": "https://pbs.twimg.com/profile_banners/33630031/1357125543", "profile_link_color": "1B95E0", "profile_sidebar_border_color": "000000", "profile_sidebar_fill_color": "000000", "profile_text_color": "000000", "profile_use_background_image": false, "has_extended_profile": false, "default_profile": false, "default_profile_image": false, "following": false, "follow_request_sent": false, "notifications": false, "translator_type": "none"}, "geo": null, "coordinates": null, "place": null, "contributors": null, "is_quote_status": false, "retweet_count": 0, "favorite_count": 1, "favorited": false, "retweeted": false, "possibly_sensitive": false, "lang": "fr"}
{"created_at": "Wed Apr 29 12:36:27 +0000 2020", "id": 1255476038907330560, "id_str": "1255476038907330560", "full_text": "M\u00e9morandum Covid-19 pour du libre et de l\u2019open en conscience\u00a0: enseignements et impulsions futures https://t.co/UYcVqkGSpg", "truncated": false, "display_text_range": [0, 122], "entities": {"hashtags": [], "symbols": [], "user_mentions": [], "urls": [{"url": "https://t.co/UYcVqkGSpg", "expanded_url": "https://framablog.org/2020/04/29/memorandum-covid-19-pour-du-libre-et-de-lopen-en-conscience-enseignements-et-impulsions-futures/", "display_url": "framablog.org/2020/04/29/mem\u2026", "indices": [99, 122]}]}, "metadata": {"iso_language_code": "fr", "result_type": "recent"}, "source": "<a href=\"http://twitter.com\" rel=\"nofollow\">Twitter Web Client</a>", "in_reply_to_status_id": null, "in_reply_to_status_id_str": null, "in_reply_to_user_id": null, "in_reply_to_user_id_str": null, "in_reply_to_screen_name": null, "user": {"id": 1035266966, "id_str": "1035266966", "name": "Benjamin Gentils", "screen_name": "Bgentils", "location": "Paris XXe", "description": "#Education #Tierslieux #territoires #FaireEcole", "url": null, "entities": {"description": {"urls": []}}, "protected": false, "followers_count": 2260, "friends_count": 2774, "listed_count": 98, "created_at": "Tue Dec 25 17:48:30 +0000 2012", "favourites_count": 2808, "utc_offset": null, "time_zone": null, "geo_enabled": true, "verified": false, "statuses_count": 5873, "lang": null, "contributors_enabled": false, "is_translator": false, "is_translation_enabled": false, "profile_background_color": "C0DEED", "profile_background_image_url": "http://abs.twimg.com/images/themes/theme1/bg.png", "profile_background_image_url_https": "https://abs.twimg.com/images/themes/theme1/bg.png", "profile_background_tile": false, "profile_image_url": "http://pbs.twimg.com/profile_images/533192504250621952/k9CZ_pNu_normal.jpeg", "profile_image_url_https": "https://pbs.twimg.com/profile_images/533192504250621952/k9CZ_pNu_normal.jpeg", "profile_banner_url": "https://pbs.twimg.com/profile_banners/1035266966/1432752401", "profile_link_color": "1DA1F2", "profile_sidebar_border_color": "C0DEED", "profile_sidebar_fill_color": "DDEEF6", "profile_text_color": "333333", "profile_use_background_image": true, "has_extended_profile": false, "default_profile": true, "default_profile_image": false, "following": false, "follow_request_sent": false, "notifications": false, "translator_type": "none"}, "geo": null, "coordinates": null, "place": null, "contributors": null, "is_quote_status": false, "retweet_count": 0, "favorite_count": 0, "favorited": false, "retweeted": false, "possibly_sensitive": false, "lang": "fr"}
{"created_at": "Wed Apr 29 11:55:58 +0000 2020", "id": 1255465847340048391, "id_str": "1255465847340048391", "full_text": "RT @framasoft: \u00ab M\u00e9morandum Covid-19 pour du libre et de l\u2019open en conscience : enseignements et impulsions futures \u00bb, texte collectif sout\u2026", "truncated": false, "display_text_range": [0, 140], "entities": {"hashtags": [], "symbols": [], "user_mentions": [{"screen_name": "framasoft", "name": "Framasoft", "id": 18230705, "id_str": "18230705", "indices": [3, 13]}], "urls": []}, "metadata": {"iso_language_code": "fr", "result_type": "recent"}, "source": "<a href=\"http://twitter.com/download/iphone\" rel=\"nofollow\">Twitter for iPhone</a>", "in_reply_to_status_id": null, "in_reply_to_status_id_str": null, "in_reply_to_user_id": null, "in_reply_to_user_id_str": null, "in_reply_to_screen_name": null, "user": {"id": 265531996, "id_str": "265531996", "name": "Marc Lavastrou", "screen_name": "marc_lavastrou", "location": "Nantes, France", "description": "Docteur en allemand / Sp\u00e9cialiste du Cin\u00e9ma et de la presse cin\u00e9matographique fran\u00e7aise / #DigitalHumanities / Membre du collectif @savoirscom1", "url": "https://t.co/aBzjd632F8", "entities": {"url": {"urls": [{"url": "https://t.co/aBzjd632F8", "expanded_url": "http://www.zotero.org/marc_lavastrou/cv", "display_url": "zotero.org/marc_lavastrou\u2026", "indices": [0, 23]}]}, "description": {"urls": []}}, "protected": false, "followers_count": 520, "friends_count": 1944, "listed_count": 57, "created_at": "Sun Mar 13 18:17:57 +0000 2011", "favourites_count": 8242, "utc_offset": null, "time_zone": null, "geo_enabled": false, "verified": false, "statuses_count": 7340, "lang": null, "contributors_enabled": false, "is_translator": false, "is_translation_enabled": false, "profile_background_color": "C0DEED", "profile_background_image_url": "http://abs.twimg.com/images/themes/theme1/bg.png", "profile_background_image_url_https": "https://abs.twimg.com/images/themes/theme1/bg.png", "profile_background_tile": false, "profile_image_url": "http://pbs.twimg.com/profile_images/2495550223/2nm0uolw0vim0eiarb9w_normal.jpeg", "profile_image_url_https": "https://pbs.twimg.com/profile_images/2495550223/2nm0uolw0vim0eiarb9w_normal.jpeg", "profile_link_color": "1DA1F2", "profile_sidebar_border_color": "C0DEED", "profile_sidebar_fill_color": "DDEEF6", "profile_text_color": "333333", "profile_use_background_image": true, "has_extended_profile": false, "default_profile": true, "default_profile_image": false, "following": false, "follow_request_sent": false, "notifications": false, "translator_type": "none"}, "geo": null, "coordinates": null, "place": null, "contributors": null, "retweeted_status": {"created_at": "Wed Apr 29 08:30:05 +0000 2020", "id": 1255414036927336449, "id_str": "1255414036927336449", "full_text": "\u00ab M\u00e9morandum Covid-19 pour du libre et de l\u2019open en conscience : enseignements et impulsions futures \u00bb, texte collectif soutenu par de multiples acteur\u22c5ices du libre (dont @framasoft ).\n\nhttps://t.co/lEB758I73P https://t.co/4RdAkAmcb3", "truncated": false, "display_text_range": [0, 210], "entities": {"hashtags": [], "symbols": [], "user_mentions": [{"screen_name": "framasoft", "name": "Framasoft", "id": 18230705, "id_str": "18230705", "indices": [172, 182]}], "urls": [{"url": "https://t.co/lEB758I73P", "expanded_url": "https://framablog.org/2020/04/29/memorandum-covid-19-pour-du-libre-et-de-lopen-en-conscience-enseignements-et-impulsions-futures/", "display_url": "framablog.org/2020/04/29/mem\u2026", "indices": [187, 210]}], "media": [{"id": 1255413725105917952, "id_str": "1255413725105917952", "indices": [211, 234], "media_url": "http://pbs.twimg.com/media/EWwgIasWkAAKqxR.jpg", "media_url_https": "https://pbs.twimg.com/media/EWwgIasWkAAKqxR.jpg", "url": "https://t.co/4RdAkAmcb3", "display_url": "pic.twitter.com/4RdAkAmcb3", "expanded_url": "https://twitter.com/framasoft/status/1255414036927336449/photo/1", "type": "photo", "sizes": {"medium": {"w": 1200, "h": 786, "resize": "fit"}, "thumb": {"w": 150, "h": 150, "resize": "crop"}, "small": {"w": 680, "h": 445, "resize": "fit"}, "large": {"w": 2048, "h": 1341, "resize": "fit"}}}]}, "extended_entities": {"media": [{"id": 1255413725105917952, "id_str": "1255413725105917952", "indices": [211, 234], "media_url": "http://pbs.twimg.com/media/EWwgIasWkAAKqxR.jpg", "media_url_https": "https://pbs.twimg.com/media/EWwgIasWkAAKqxR.jpg", "url": "https://t.co/4RdAkAmcb3", "display_url": "pic.twitter.com/4RdAkAmcb3", "expanded_url": "https://twitter.com/framasoft/status/1255414036927336449/photo/1", "type": "photo", "sizes": {"medium": {"w": 1200, "h": 786, "resize": "fit"}, "thumb": {"w": 150, "h": 150, "resize": "crop"}, "small": {"w": 680, "h": 445, "resize": "fit"}, "large": {"w": 2048, "h": 1341, "resize": "fit"}}}]}, "metadata": {"iso_language_code": "fr", "result_type": "recent"}, "source": "<a href=\"https://about.twitter.com/products/tweetdeck\" rel=\"nofollow\">TweetDeck</a>", "in_reply_to_status_id": null, "in_reply_to_status_id_str": null, "in_reply_to_user_id": null, "in_reply_to_user_id_str": null, "in_reply_to_screen_name": null, "user": {"id": 18230705, "id_str": "18230705", "name": "Framasoft", "screen_name": "framasoft", "location": "127.0.0.1", "description": "La route est longue mais la voie est libre\u2026\nBesoin d'aide ou d'entraide ? https://t.co/TsmZqyTArH\n\u26a0\ufe0f PAS DE SUPPORT SUR TWITTER ! \u26a0\ufe0f", "url": "http://t.co/DHJXjbWO8q", "entities": {"url": {"urls": [{"url": "http://t.co/DHJXjbWO8q", "expanded_url": "http://www.framasoft.org", "display_url": "framasoft.org", "indices": [0, 22]}]}, "description": {"urls": [{"url": "https://t.co/TsmZqyTArH", "expanded_url": "https://framacolibri.org/c/entraide/", "display_url": "framacolibri.org/c/entraide/", "indices": [74, 97]}]}}, "protected": false, "followers_count": 32095, "friends_count": 401, "listed_count": 1344, "created_at": "Fri Dec 19 01:15:26 +0000 2008", "favourites_count": 8088, "utc_offset": null, "time_zone": null, "geo_enabled": false, "verified": false, "statuses_count": 18979, "lang": null, "contributors_enabled": false, "is_translator": false, "is_translation_enabled": false, "profile_background_color": "000000", "profile_background_image_url": "http://abs.twimg.com/images/themes/theme6/bg.gif", "profile_background_image_url_https": "https://abs.twimg.com/images/themes/theme6/bg.gif", "profile_background_tile": false, "profile_image_url": "http://pbs.twimg.com/profile_images/1108993170120019968/25bIPYmm_normal.png", "profile_image_url_https": "https://pbs.twimg.com/profile_images/1108993170120019968/25bIPYmm_normal.png", "profile_banner_url": "https://pbs.twimg.com/profile_banners/18230705/1553239531", "profile_link_color": "0084B4", "profile_sidebar_border_color": "A4A4DF", "profile_sidebar_fill_color": "C4C4FF", "profile_text_color": "6B6880", "profile_use_background_image": true, "has_extended_profile": false, "default_profile": false, "default_profile_image": false, "following": true, "follow_request_sent": false, "notifications": false, "translator_type": "none"}, "geo": null, "coordinates": null, "place": null, "contributors": null, "is_quote_status": false, "retweet_count": 8, "favorite_count": 7, "favorited": false, "retweeted": false, "possibly_sensitive": false, "lang": "fr"}, "is_quote_status": false, "retweet_count": 8, "favorite_count": 0, "favorited": false, "retweeted": false, "lang": "fr"}
{"created_at": "Wed Apr 29 09:10:21 +0000 2020", "id": 1255424168973172736, "id_str": "1255424168973172736", "full_text": "RT @framasoft: \u00ab M\u00e9morandum Covid-19 pour du libre et de l\u2019open en conscience : enseignements et impulsions futures \u00bb, texte collectif sout\u2026", "truncated": false, "display_text_range": [0, 140], "entities": {"hashtags": [], "symbols": [], "user_mentions": [{"screen_name": "framasoft", "name": "Framasoft", "id": 18230705, "id_str": "18230705", "indices": [3, 13]}], "urls": []}, "metadata": {"iso_language_code": "fr", "result_type": "recent"}, "source": "<a href=\"http://twitter.com/download/iphone\" rel=\"nofollow\">Twitter for iPhone</a>", "in_reply_to_status_id": null, "in_reply_to_status_id_str": null, "in_reply_to_user_id": null, "in_reply_to_user_id_str": null, "in_reply_to_screen_name": null, "user": {"id": 37676258, "id_str": "37676258", "name": "Nicolas Loubet", "screen_name": "NicolasLoubet", "location": "Lyon", "description": "Cooperator @Oxamyne @FabEnergies #FaireEcoleEnsemble #CovidInitiatives", "url": "https://t.co/MUQCUqUhRW", "entities": {"url": {"urls": [{"url": "https://t.co/MUQCUqUhRW", "expanded_url": "http://nicolasloubet.lescommuns.org", "display_url": "nicolasloubet.lescommuns.org", "indices": [0, 23]}]}, "description": {"urls": []}}, "protected": false, "followers_count": 13029, "friends_count": 13033, "listed_count": 1053, "created_at": "Mon May 04 14:58:38 +0000 2009", "favourites_count": 36012, "utc_offset": null, "time_zone": null, "geo_enabled": true, "verified": false, "statuses_count": 52712, "lang": null, "contributors_enabled": false, "is_translator": false, "is_translation_enabled": false, "profile_background_color": "131516", "profile_background_image_url": "http://abs.twimg.com/images/themes/theme14/bg.gif", "profile_background_image_url_https": "https://abs.twimg.com/images/themes/theme14/bg.gif", "profile_background_tile": true, "profile_image_url": "http://pbs.twimg.com/profile_images/460412745113153536/D3faKQMv_normal.jpeg", "profile_image_url_https": "https://pbs.twimg.com/profile_images/460412745113153536/D3faKQMv_normal.jpeg", "profile_banner_url": "https://pbs.twimg.com/profile_banners/37676258/1348011669", "profile_link_color": "009999", "profile_sidebar_border_color": "EEEEEE", "profile_sidebar_fill_color": "EFEFEF", "profile_text_color": "333333", "profile_use_background_image": true, "has_extended_profile": false, "default_profile": false, "default_profile_image": false, "following": true, "follow_request_sent": false, "notifications": false, "translator_type": "none"}, "geo": null, "coordinates": null, "place": null, "contributors": null, "retweeted_status": {"created_at": "Wed Apr 29 08:30:05 +0000 2020", "id": 1255414036927336449, "id_str": "1255414036927336449", "full_text": "\u00ab M\u00e9morandum Covid-19 pour du libre et de l\u2019open en conscience : enseignements et impulsions futures \u00bb, texte collectif soutenu par de multiples acteur\u22c5ices du libre (dont @framasoft ).\n\nhttps://t.co/lEB758I73P https://t.co/4RdAkAmcb3", "truncated": false, "display_text_range": [0, 210], "entities": {"hashtags": [], "symbols": [], "user_mentions": [{"screen_name": "framasoft", "name": "Framasoft", "id": 18230705, "id_str": "18230705", "indices": [172, 182]}], "urls": [{"url": "https://t.co/lEB758I73P", "expanded_url": "https://framablog.org/2020/04/29/memorandum-covid-19-pour-du-libre-et-de-lopen-en-conscience-enseignements-et-impulsions-futures/", "display_url": "framablog.org/2020/04/29/mem\u2026", "indices": [187, 210]}], "media": [{"id": 1255413725105917952, "id_str": "1255413725105917952", "indices": [211, 234], "media_url": "http://pbs.twimg.com/media/EWwgIasWkAAKqxR.jpg", "media_url_https": "https://pbs.twimg.com/media/EWwgIasWkAAKqxR.jpg", "url": "https://t.co/4RdAkAmcb3", "display_url": "pic.twitter.com/4RdAkAmcb3", "expanded_url": "https://twitter.com/framasoft/status/1255414036927336449/photo/1", "type": "photo", "sizes": {"medium": {"w": 1200, "h": 786, "resize": "fit"}, "thumb": {"w": 150, "h": 150, "resize": "crop"}, "small": {"w": 680, "h": 445, "resize": "fit"}, "large": {"w": 2048, "h": 1341, "resize": "fit"}}}]}, "extended_entities": {"media": [{"id": 1255413725105917952, "id_str": "1255413725105917952", "indices": [211, 234], "media_url": "http://pbs.twimg.com/media/EWwgIasWkAAKqxR.jpg", "media_url_https": "https://pbs.twimg.com/media/EWwgIasWkAAKqxR.jpg", "url": "https://t.co/4RdAkAmcb3", "display_url": "pic.twitter.com/4RdAkAmcb3", "expanded_url": "https://twitter.com/framasoft/status/1255414036927336449/photo/1", "type": "photo", "sizes": {"medium": {"w": 1200, "h": 786, "resize": "fit"}, "thumb": {"w": 150, "h": 150, "resize": "crop"}, "small": {"w": 680, "h": 445, "resize": "fit"}, "large": {"w": 2048, "h": 1341, "resize": "fit"}}}]}, "metadata": {"iso_language_code": "fr", "result_type": "recent"}, "source": "<a href=\"https://about.twitter.com/products/tweetdeck\" rel=\"nofollow\">TweetDeck</a>", "in_reply_to_status_id": null, "in_reply_to_status_id_str": null, "in_reply_to_user_id": null, "in_reply_to_user_id_str": null, "in_reply_to_screen_name": null, "user": {"id": 18230705, "id_str": "18230705", "name": "Framasoft", "screen_name": "framasoft", "location": "127.0.0.1", "description": "La route est longue mais la voie est libre\u2026\nBesoin d'aide ou d'entraide ? https://t.co/TsmZqyTArH\n\u26a0\ufe0f PAS DE SUPPORT SUR TWITTER ! \u26a0\ufe0f", "url": "http://t.co/DHJXjbWO8q", "entities": {"url": {"urls": [{"url": "http://t.co/DHJXjbWO8q", "expanded_url": "http://www.framasoft.org", "display_url": "framasoft.org", "indices": [0, 22]}]}, "description": {"urls": [{"url": "https://t.co/TsmZqyTArH", "expanded_url": "https://framacolibri.org/c/entraide/", "display_url": "framacolibri.org/c/entraide/", "indices": [74, 97]}]}}, "protected": false, "followers_count": 32095, "friends_count": 401, "listed_count": 1344, "created_at": "Fri Dec 19 01:15:26 +0000 2008", "favourites_count": 8088, "utc_offset": null, "time_zone": null, "geo_enabled": false, "verified": false, "statuses_count": 18979, "lang": null, "contributors_enabled": false, "is_translator": false, "is_translation_enabled": false, "profile_background_color": "000000", "profile_background_image_url": "http://abs.twimg.com/images/themes/theme6/bg.gif", "profile_background_image_url_https": "https://abs.twimg.com/images/themes/theme6/bg.gif", "profile_background_tile": false, "profile_image_url": "http://pbs.twimg.com/profile_images/1108993170120019968/25bIPYmm_normal.png", "profile_image_url_https": "https://pbs.twimg.com/profile_images/1108993170120019968/25bIPYmm_normal.png", "profile_banner_url": "https://pbs.twimg.com/profile_banners/18230705/1553239531", "profile_link_color": "0084B4", "profile_sidebar_border_color": "A4A4DF", "profile_sidebar_fill_color": "C4C4FF", "profile_text_color": "6B6880", "profile_use_background_image": true, "has_extended_profile": false, "default_profile": false, "default_profile_image": false, "following": true, "follow_request_sent": false, "notifications": false, "translator_type": "none"}, "geo": null, "coordinates": null, "place": null, "contributors": null, "is_quote_status": false, "retweet_count": 8, "favorite_count": 7, "favorited": false, "retweeted": false, "possibly_sensitive": false, "lang": "fr"}, "is_quote_status": false, "retweet_count": 8, "favorite_count": 0, "favorited": false, "retweeted": false, "lang": "fr"}
{"created_at": "Wed Apr 29 09:07:49 +0000 2020", "id": 1255423533590732800, "id_str": "1255423533590732800", "full_text": "RT @framasoft: \u00ab M\u00e9morandum Covid-19 pour du libre et de l\u2019open en conscience : enseignements et impulsions futures \u00bb, texte collectif sout\u2026", "truncated": false, "display_text_range": [0, 140], "entities": {"hashtags": [], "symbols": [], "user_mentions": [{"screen_name": "framasoft", "name": "Framasoft", "id": 18230705, "id_str": "18230705", "indices": [3, 13]}], "urls": []}, "metadata": {"iso_language_code": "fr", "result_type": "recent"}, "source": "<a href=\"http://twitter.com/download/android\" rel=\"nofollow\">Twitter for Android</a>", "in_reply_to_status_id": null, "in_reply_to_status_id_str": null, "in_reply_to_user_id": null, "in_reply_to_user_id_str": null, "in_reply_to_screen_name": null, "user": {"id": 521653610, "id_str": "521653610", "name": "A.P.D.E.N.", "screen_name": "APDEN_Fede", "location": "France", "description": "Association des professeurs documentalistes de l'Education nationale (Ex FADBEN)", "url": "https://t.co/klv6bnQRrh", "entities": {"url": {"urls": [{"url": "https://t.co/klv6bnQRrh", "expanded_url": "http://www.apden.org", "display_url": "apden.org", "indices": [0, 23]}]}, "description": {"urls": []}}, "protected": false, "followers_count": 4069, "friends_count": 188, "listed_count": 247, "created_at": "Sun Mar 11 20:34:28 +0000 2012", "favourites_count": 1629, "utc_offset": null, "time_zone": null, "geo_enabled": false, "verified": false, "statuses_count": 27808, "lang": null, "contributors_enabled": false, "is_translator": false, "is_translation_enabled": false, "profile_background_color": "A349A4", "profile_background_image_url": "http://abs.twimg.com/images/themes/theme13/bg.gif", "profile_background_image_url_https": "https://abs.twimg.com/images/themes/theme13/bg.gif", "profile_background_tile": false, "profile_image_url": "http://pbs.twimg.com/profile_images/692984131173629952/8uIcJCqZ_normal.png", "profile_image_url_https": "https://pbs.twimg.com/profile_images/692984131173629952/8uIcJCqZ_normal.png", "profile_banner_url": "https://pbs.twimg.com/profile_banners/521653610/1454055289", "profile_link_color": "3B94D9", "profile_sidebar_border_color": "C0DEED", "profile_sidebar_fill_color": "DDEEF6", "profile_text_color": "333333", "profile_use_background_image": true, "has_extended_profile": true, "default_profile": false, "default_profile_image": false, "following": false, "follow_request_sent": false, "notifications": false, "translator_type": "none"}, "geo": null, "coordinates": null, "place": null, "contributors": null, "retweeted_status": {"created_at": "Wed Apr 29 08:30:05 +0000 2020", "id": 1255414036927336449, "id_str": "1255414036927336449", "full_text": "\u00ab M\u00e9morandum Covid-19 pour du libre et de l\u2019open en conscience : enseignements et impulsions futures \u00bb, texte collectif soutenu par de multiples acteur\u22c5ices du libre (dont @framasoft ).\n\nhttps://t.co/lEB758I73P https://t.co/4RdAkAmcb3", "truncated": false, "display_text_range": [0, 210], "entities": {"hashtags": [], "symbols": [], "user_mentions": [{"screen_name": "framasoft", "name": "Framasoft", "id": 18230705, "id_str": "18230705", "indices": [172, 182]}], "urls": [{"url": "https://t.co/lEB758I73P", "expanded_url": "https://framablog.org/2020/04/29/memorandum-covid-19-pour-du-libre-et-de-lopen-en-conscience-enseignements-et-impulsions-futures/", "display_url": "framablog.org/2020/04/29/mem\u2026", "indices": [187, 210]}], "media": [{"id": 1255413725105917952, "id_str": "1255413725105917952", "indices": [211, 234], "media_url": "http://pbs.twimg.com/media/EWwgIasWkAAKqxR.jpg", "media_url_https": "https://pbs.twimg.com/media/EWwgIasWkAAKqxR.jpg", "url": "https://t.co/4RdAkAmcb3", "display_url": "pic.twitter.com/4RdAkAmcb3", "expanded_url": "https://twitter.com/framasoft/status/1255414036927336449/photo/1", "type": "photo", "sizes": {"medium": {"w": 1200, "h": 786, "resize": "fit"}, "thumb": {"w": 150, "h": 150, "resize": "crop"}, "small": {"w": 680, "h": 445, "resize": "fit"}, "large": {"w": 2048, "h": 1341, "resize": "fit"}}}]}, "extended_entities": {"media": [{"id": 1255413725105917952, "id_str": "1255413725105917952", "indices": [211, 234], "media_url": "http://pbs.twimg.com/media/EWwgIasWkAAKqxR.jpg", "media_url_https": "https://pbs.twimg.com/media/EWwgIasWkAAKqxR.jpg", "url": "https://t.co/4RdAkAmcb3", "display_url": "pic.twitter.com/4RdAkAmcb3", "expanded_url": "https://twitter.com/framasoft/status/1255414036927336449/photo/1", "type": "photo", "sizes": {"medium": {"w": 1200, "h": 786, "resize": "fit"}, "thumb": {"w": 150, "h": 150, "resize": "crop"}, "small": {"w": 680, "h": 445, "resize": "fit"}, "large": {"w": 2048, "h": 1341, "resize": "fit"}}}]}, "metadata": {"iso_language_code": "fr", "result_type": "recent"}, "source": "<a href=\"https://about.twitter.com/products/tweetdeck\" rel=\"nofollow\">TweetDeck</a>", "in_reply_to_status_id": null, "in_reply_to_status_id_str": null, "in_reply_to_user_id": null, "in_reply_to_user_id_str": null, "in_reply_to_screen_name": null, "user": {"id": 18230705, "id_str": "18230705", "name": "Framasoft", "screen_name": "framasoft", "location": "127.0.0.1", "description": "La route est longue mais la voie est libre\u2026\nBesoin d'aide ou d'entraide ? https://t.co/TsmZqyTArH\n\u26a0\ufe0f PAS DE SUPPORT SUR TWITTER ! \u26a0\ufe0f", "url": "http://t.co/DHJXjbWO8q", "entities": {"url": {"urls": [{"url": "http://t.co/DHJXjbWO8q", "expanded_url": "http://www.framasoft.org", "display_url": "framasoft.org", "indices": [0, 22]}]}, "description": {"urls": [{"url": "https://t.co/TsmZqyTArH", "expanded_url": "https://framacolibri.org/c/entraide/", "display_url": "framacolibri.org/c/entraide/", "indices": [74, 97]}]}}, "protected": false, "followers_count": 32095, "friends_count": 401, "listed_count": 1344, "created_at": "Fri Dec 19 01:15:26 +0000 2008", "favourites_count": 8088, "utc_offset": null, "time_zone": null, "geo_enabled": false, "verified": false, "statuses_count": 18979, "lang": null, "contributors_enabled": false, "is_translator": false, "is_translation_enabled": false, "profile_background_color": "000000", "profile_background_image_url": "http://abs.twimg.com/images/themes/theme6/bg.gif", "profile_background_image_url_https": "https://abs.twimg.com/images/themes/theme6/bg.gif", "profile_background_tile": false, "profile_image_url": "http://pbs.twimg.com/profile_images/1108993170120019968/25bIPYmm_normal.png", "profile_image_url_https": "https://pbs.twimg.com/profile_images/1108993170120019968/25bIPYmm_normal.png", "profile_banner_url": "https://pbs.twimg.com/profile_banners/18230705/1553239531", "profile_link_color": "0084B4", "profile_sidebar_border_color": "A4A4DF", "profile_sidebar_fill_color": "C4C4FF", "profile_text_color": "6B6880", "profile_use_background_image": true, "has_extended_profile": false, "default_profile": false, "default_profile_image": false, "following": true, "follow_request_sent": false, "notifications": false, "translator_type": "none"}, "geo": null, "coordinates": null, "place": null, "contributors": null, "is_quote_status": false, "retweet_count": 8, "favorite_count": 7, "favorited": false, "retweeted": false, "possibly_sensitive": false, "lang": "fr"}, "is_quote_status": false, "retweet_count": 8, "favorite_count": 0, "favorited": false, "retweeted": false, "lang": "fr"}
{"created_at": "Wed Apr 29 08:52:41 +0000 2020", "id": 1255419723283562498, "id_str": "1255419723283562498", "full_text": "RT @framasoft: \u00ab M\u00e9morandum Covid-19 pour du libre et de l\u2019open en conscience : enseignements et impulsions futures \u00bb, texte collectif sout\u2026", "truncated": false, "display_text_range": [0, 140], "entities": {"hashtags": [], "symbols": [], "user_mentions": [{"screen_name": "framasoft", "name": "Framasoft", "id": 18230705, "id_str": "18230705", "indices": [3, 13]}], "urls": []}, "metadata": {"iso_language_code": "fr", "result_type": "recent"}, "source": "<a href=\"https://mobile.twitter.com\" rel=\"nofollow\">Twitter Web App</a>", "in_reply_to_status_id": null, "in_reply_to_status_id_str": null, "in_reply_to_user_id": null, "in_reply_to_user_id_str": null, "in_reply_to_screen_name": null, "user": {"id": 605434083, "id_str": "605434083", "name": "jfmourgues", "screen_name": "jfmourgues", "location": "Villeurbanne", "description": "punk, libriste, caf\u00e9in\u00e9, habitant d'Internet,  anarchmiste fromagiste #TERRORIMSE presumes-terroristes.fr\nhttps://t.co/Yc7AQijYqa", "url": "https://t.co/wum31qQxin", "entities": {"url": {"urls": [{"url": "https://t.co/wum31qQxin", "expanded_url": "https://presumes-terroristes.fr/soutiens.html", "display_url": "presumes-terroristes.fr/soutiens.html", "indices": [0, 23]}]}, "description": {"urls": [{"url": "https://t.co/Yc7AQijYqa", "expanded_url": "http://battleforthenet.com", "display_url": "battleforthenet.com", "indices": [106, 129]}]}}, "protected": false, "followers_count": 304, "friends_count": 475, "listed_count": 113, "created_at": "Mon Jun 11 11:47:55 +0000 2012", "favourites_count": 1051, "utc_offset": null, "time_zone": null, "geo_enabled": true, "verified": false, "statuses_count": 17358, "lang": null, "contributors_enabled": false, "is_translator": false, "is_translation_enabled": false, "profile_background_color": "000000", "profile_background_image_url": "http://abs.twimg.com/images/themes/theme1/bg.png", "profile_background_image_url_https": "https://abs.twimg.com/images/themes/theme1/bg.png", "profile_background_tile": false, "profile_image_url": "http://pbs.twimg.com/profile_images/512946250870554624/89jvFVgL_normal.png", "profile_image_url_https": "https://pbs.twimg.com/profile_images/512946250870554624/89jvFVgL_normal.png", "profile_link_color": "0084B4", "profile_sidebar_border_color": "FFFFFF", "profile_sidebar_fill_color": "DDEEF6", "profile_text_color": "333333", "profile_use_background_image": true, "has_extended_profile": false, "default_profile": false, "default_profile_image": false, "following": false, "follow_request_sent": false, "notifications": false, "translator_type": "none"}, "geo": null, "coordinates": null, "place": null, "contributors": null, "retweeted_status": {"created_at": "Wed Apr 29 08:30:05 +0000 2020", "id": 1255414036927336449, "id_str": "1255414036927336449", "full_text": "\u00ab M\u00e9morandum Covid-19 pour du libre et de l\u2019open en conscience : enseignements et impulsions futures \u00bb, texte collectif soutenu par de multiples acteur\u22c5ices du libre (dont @framasoft ).\n\nhttps://t.co/lEB758I73P https://t.co/4RdAkAmcb3", "truncated": false, "display_text_range": [0, 210], "entities": {"hashtags": [], "symbols": [], "user_mentions": [{"screen_name": "framasoft", "name": "Framasoft", "id": 18230705, "id_str": "18230705", "indices": [172, 182]}], "urls": [{"url": "https://t.co/lEB758I73P", "expanded_url": "https://framablog.org/2020/04/29/memorandum-covid-19-pour-du-libre-et-de-lopen-en-conscience-enseignements-et-impulsions-futures/", "display_url": "framablog.org/2020/04/29/mem\u2026", "indices": [187, 210]}], "media": [{"id": 1255413725105917952, "id_str": "1255413725105917952", "indices": [211, 234], "media_url": "http://pbs.twimg.com/media/EWwgIasWkAAKqxR.jpg", "media_url_https": "https://pbs.twimg.com/media/EWwgIasWkAAKqxR.jpg", "url": "https://t.co/4RdAkAmcb3", "display_url": "pic.twitter.com/4RdAkAmcb3", "expanded_url": "https://twitter.com/framasoft/status/1255414036927336449/photo/1", "type": "photo", "sizes": {"medium": {"w": 1200, "h": 786, "resize": "fit"}, "thumb": {"w": 150, "h": 150, "resize": "crop"}, "small": {"w": 680, "h": 445, "resize": "fit"}, "large": {"w": 2048, "h": 1341, "resize": "fit"}}}]}, "extended_entities": {"media": [{"id": 1255413725105917952, "id_str": "1255413725105917952", "indices": [211, 234], "media_url": "http://pbs.twimg.com/media/EWwgIasWkAAKqxR.jpg", "media_url_https": "https://pbs.twimg.com/media/EWwgIasWkAAKqxR.jpg", "url": "https://t.co/4RdAkAmcb3", "display_url": "pic.twitter.com/4RdAkAmcb3", "expanded_url": "https://twitter.com/framasoft/status/1255414036927336449/photo/1", "type": "photo", "sizes": {"medium": {"w": 1200, "h": 786, "resize": "fit"}, "thumb": {"w": 150, "h": 150, "resize": "crop"}, "small": {"w": 680, "h": 445, "resize": "fit"}, "large": {"w": 2048, "h": 1341, "resize": "fit"}}}]}, "metadata": {"iso_language_code": "fr", "result_type": "recent"}, "source": "<a href=\"https://about.twitter.com/products/tweetdeck\" rel=\"nofollow\">TweetDeck</a>", "in_reply_to_status_id": null, "in_reply_to_status_id_str": null, "in_reply_to_user_id": null, "in_reply_to_user_id_str": null, "in_reply_to_screen_name": null, "user": {"id": 18230705, "id_str": "18230705", "name": "Framasoft", "screen_name": "framasoft", "location": "127.0.0.1", "description": "La route est longue mais la voie est libre\u2026\nBesoin d'aide ou d'entraide ? https://t.co/TsmZqyTArH\n\u26a0\ufe0f PAS DE SUPPORT SUR TWITTER ! \u26a0\ufe0f", "url": "http://t.co/DHJXjbWO8q", "entities": {"url": {"urls": [{"url": "http://t.co/DHJXjbWO8q", "expanded_url": "http://www.framasoft.org", "display_url": "framasoft.org", "indices": [0, 22]}]}, "description": {"urls": [{"url": "https://t.co/TsmZqyTArH", "expanded_url": "https://framacolibri.org/c/entraide/", "display_url": "framacolibri.org/c/entraide/", "indices": [74, 97]}]}}, "protected": false, "followers_count": 32095, "friends_count": 401, "listed_count": 1344, "created_at": "Fri Dec 19 01:15:26 +0000 2008", "favourites_count": 8088, "utc_offset": null, "time_zone": null, "geo_enabled": false, "verified": false, "statuses_count": 18979, "lang": null, "contributors_enabled": false, "is_translator": false, "is_translation_enabled": false, "profile_background_color": "000000", "profile_background_image_url": "http://abs.twimg.com/images/themes/theme6/bg.gif", "profile_background_image_url_https": "https://abs.twimg.com/images/themes/theme6/bg.gif", "profile_background_tile": false, "profile_image_url": "http://pbs.twimg.com/profile_images/1108993170120019968/25bIPYmm_normal.png", "profile_image_url_https": "https://pbs.twimg.com/profile_images/1108993170120019968/25bIPYmm_normal.png", "profile_banner_url": "https://pbs.twimg.com/profile_banners/18230705/1553239531", "profile_link_color": "0084B4", "profile_sidebar_border_color": "A4A4DF", "profile_sidebar_fill_color": "C4C4FF", "profile_text_color": "6B6880", "profile_use_background_image": true, "has_extended_profile": false, "default_profile": false, "default_profile_image": false, "following": true, "follow_request_sent": false, "notifications": false, "translator_type": "none"}, "geo": null, "coordinates": null, "place": null, "contributors": null, "is_quote_status": false, "retweet_count": 8, "favorite_count": 7, "favorited": false, "retweeted": false, "possibly_sensitive": false, "lang": "fr"}, "is_quote_status": false, "retweet_count": 8, "favorite_count": 0, "favorited": false, "retweeted": false, "lang": "fr"}
{"created_at": "Wed Apr 29 08:32:32 +0000 2020", "id": 1255414655171911690, "id_str": "1255414655171911690", "full_text": "RT @framasoft: \u00ab M\u00e9morandum Covid-19 pour du libre et de l\u2019open en conscience : enseignements et impulsions futures \u00bb, texte collectif sout\u2026", "truncated": false, "display_text_range": [0, 140], "entities": {"hashtags": [], "symbols": [], "user_mentions": [{"screen_name": "framasoft", "name": "Framasoft", "id": 18230705, "id_str": "18230705", "indices": [3, 13]}], "urls": []}, "metadata": {"iso_language_code": "fr", "result_type": "recent"}, "source": "<a href=\"https://mobile.twitter.com\" rel=\"nofollow\">Twitter Web App</a>", "in_reply_to_status_id": null, "in_reply_to_status_id_str": null, "in_reply_to_user_id": null, "in_reply_to_user_id_str": null, "in_reply_to_screen_name": null, "user": {"id": 2415652987, "id_str": "2415652987", "name": "Mescipa ZAFRANE", "screen_name": "mescipa", "location": "Nord", "description": "Je tweete  num\u00e9rique, opportunit\u00e9s, bonnes id\u00e9es & https://t.co/VN2XgXJLlo suis responsable du centre de formation Webforce3 Lille,#teamwebforce3 #Num\u00e9rique,#TH #i4Emploi", "url": "https://t.co/0Gnyyjq07t", "entities": {"url": {"urls": [{"url": "https://t.co/0Gnyyjq07t", "expanded_url": "https://www.linkedin.com/in/mescipa", "display_url": "linkedin.com/in/mescipa", "indices": [0, 23]}]}, "description": {"urls": [{"url": "https://t.co/VN2XgXJLlo", "expanded_url": "http://entraide.Je", "display_url": "entraide.Je", "indices": [51, 74]}]}}, "protected": false, "followers_count": 1337, "friends_count": 1717, "listed_count": 1287, "created_at": "Fri Mar 28 09:15:46 +0000 2014", "favourites_count": 9679, "utc_offset": null, "time_zone": null, "geo_enabled": true, "verified": false, "statuses_count": 18782, "lang": null, "contributors_enabled": false, "is_translator": false, "is_translation_enabled": false, "profile_background_color": "000000", "profile_background_image_url": "http://abs.twimg.com/images/themes/theme1/bg.png", "profile_background_image_url_https": "https://abs.twimg.com/images/themes/theme1/bg.png", "profile_background_tile": false, "profile_image_url": "http://pbs.twimg.com/profile_images/1108130424113500160/tfF87P9g_normal.png", "profile_image_url_https": "https://pbs.twimg.com/profile_images/1108130424113500160/tfF87P9g_normal.png", "profile_banner_url": "https://pbs.twimg.com/profile_banners/2415652987/1494491006", "profile_link_color": "0084B4", "profile_sidebar_border_color": "000000", "profile_sidebar_fill_color": "000000", "profile_text_color": "000000", "profile_use_background_image": true, "has_extended_profile": false, "default_profile": false, "default_profile_image": false, "following": false, "follow_request_sent": false, "notifications": false, "translator_type": "none"}, "geo": null, "coordinates": null, "place": null, "contributors": null, "retweeted_status": {"created_at": "Wed Apr 29 08:30:05 +0000 2020", "id": 1255414036927336449, "id_str": "1255414036927336449", "full_text": "\u00ab M\u00e9morandum Covid-19 pour du libre et de l\u2019open en conscience : enseignements et impulsions futures \u00bb, texte collectif soutenu par de multiples acteur\u22c5ices du libre (dont @framasoft ).\n\nhttps://t.co/lEB758I73P https://t.co/4RdAkAmcb3", "truncated": false, "display_text_range": [0, 210], "entities": {"hashtags": [], "symbols": [], "user_mentions": [{"screen_name": "framasoft", "name": "Framasoft", "id": 18230705, "id_str": "18230705", "indices": [172, 182]}], "urls": [{"url": "https://t.co/lEB758I73P", "expanded_url": "https://framablog.org/2020/04/29/memorandum-covid-19-pour-du-libre-et-de-lopen-en-conscience-enseignements-et-impulsions-futures/", "display_url": "framablog.org/2020/04/29/mem\u2026", "indices": [187, 210]}], "media": [{"id": 1255413725105917952, "id_str": "1255413725105917952", "indices": [211, 234], "media_url": "http://pbs.twimg.com/media/EWwgIasWkAAKqxR.jpg", "media_url_https": "https://pbs.twimg.com/media/EWwgIasWkAAKqxR.jpg", "url": "https://t.co/4RdAkAmcb3", "display_url": "pic.twitter.com/4RdAkAmcb3", "expanded_url": "https://twitter.com/framasoft/status/1255414036927336449/photo/1", "type": "photo", "sizes": {"medium": {"w": 1200, "h": 786, "resize": "fit"}, "thumb": {"w": 150, "h": 150, "resize": "crop"}, "small": {"w": 680, "h": 445, "resize": "fit"}, "large": {"w": 2048, "h": 1341, "resize": "fit"}}}]}, "extended_entities": {"media": [{"id": 1255413725105917952, "id_str": "1255413725105917952", "indices": [211, 234], "media_url": "http://pbs.twimg.com/media/EWwgIasWkAAKqxR.jpg", "media_url_https": "https://pbs.twimg.com/media/EWwgIasWkAAKqxR.jpg", "url": "https://t.co/4RdAkAmcb3", "display_url": "pic.twitter.com/4RdAkAmcb3", "expanded_url": "https://twitter.com/framasoft/status/1255414036927336449/photo/1", "type": "photo", "sizes": {"medium": {"w": 1200, "h": 786, "resize": "fit"}, "thumb": {"w": 150, "h": 150, "resize": "crop"}, "small": {"w": 680, "h": 445, "resize": "fit"}, "large": {"w": 2048, "h": 1341, "resize": "fit"}}}]}, "metadata": {"iso_language_code": "fr", "result_type": "recent"}, "source": "<a href=\"https://about.twitter.com/products/tweetdeck\" rel=\"nofollow\">TweetDeck</a>", "in_reply_to_status_id": null, "in_reply_to_status_id_str": null, "in_reply_to_user_id": null, "in_reply_to_user_id_str": null, "in_reply_to_screen_name": null, "user": {"id": 18230705, "id_str": "18230705", "name": "Framasoft", "screen_name": "framasoft", "location": "127.0.0.1", "description": "La route est longue mais la voie est libre\u2026\nBesoin d'aide ou d'entraide ? https://t.co/TsmZqyTArH\n\u26a0\ufe0f PAS DE SUPPORT SUR TWITTER ! \u26a0\ufe0f", "url": "http://t.co/DHJXjbWO8q", "entities": {"url": {"urls": [{"url": "http://t.co/DHJXjbWO8q", "expanded_url": "http://www.framasoft.org", "display_url": "framasoft.org", "indices": [0, 22]}]}, "description": {"urls": [{"url": "https://t.co/TsmZqyTArH", "expanded_url": "https://framacolibri.org/c/entraide/", "display_url": "framacolibri.org/c/entraide/", "indices": [74, 97]}]}}, "protected": false, "followers_count": 32095, "friends_count": 401, "listed_count": 1344, "created_at": "Fri Dec 19 01:15:26 +0000 2008", "favourites_count": 8088, "utc_offset": null, "time_zone": null, "geo_enabled": false, "verified": false, "statuses_count": 18979, "lang": null, "contributors_enabled": false, "is_translator": false, "is_translation_enabled": false, "profile_background_color": "000000", "profile_background_image_url": "http://abs.twimg.com/images/themes/theme6/bg.gif", "profile_background_image_url_https": "https://abs.twimg.com/images/themes/theme6/bg.gif", "profile_background_tile": false, "profile_image_url": "http://pbs.twimg.com/profile_images/1108993170120019968/25bIPYmm_normal.png", "profile_image_url_https": "https://pbs.twimg.com/profile_images/1108993170120019968/25bIPYmm_normal.png", "profile_banner_url": "https://pbs.twimg.com/profile_banners/18230705/1553239531", "profile_link_color": "0084B4", "profile_sidebar_border_color": "A4A4DF", "profile_sidebar_fill_color": "C4C4FF", "profile_text_color": "6B6880", "profile_use_background_image": true, "has_extended_profile": false, "default_profile": false, "default_profile_image": false, "following": true, "follow_request_sent": false, "notifications": false, "translator_type": "none"}, "geo": null, "coordinates": null, "place": null, "contributors": null, "is_quote_status": false, "retweet_count": 8, "favorite_count": 7, "favorited": false, "retweeted": false, "possibly_sensitive": false, "lang": "fr"}, "is_quote_status": false, "retweet_count": 8, "favorite_count": 0, "favorited": false, "retweeted": false, "lang": "fr"}
{"created_at": "Wed Apr 29 08:30:29 +0000 2020", "id": 1255414135531200512, "id_str": "1255414135531200512", "full_text": "[#Actu] \u00ab M\u00e9morandum Covid-19 pour du libre et de l\u2019open en conscience\u00a0: enseignements et impulsions futures \u00bb https://t.co/otvhXq1cme #Internetetsoci\u00e9t\u00e9 #LibresCultures #m\u00e9morandum #opensource #Framasoft #OpenAcess #Hardware #OpenData #COVID19 #open", "truncated": false, "display_text_range": [0, 250], "entities": {"hashtags": [{"text": "Actu", "indices": [1, 6]}, {"text": "Internetetsoci\u00e9t\u00e9", "indices": [135, 153]}, {"text": "LibresCultures", "indices": [154, 169]}, {"text": "m\u00e9morandum", "indices": [170, 181]}, {"text": "opensource", "indices": [182, 193]}, {"text": "Framasoft", "indices": [194, 204]}, {"text": "OpenAcess", "indices": [205, 215]}, {"text": "Hardware", "indices": [216, 225]}, {"text": "OpenData", "indices": [226, 235]}, {"text": "COVID19", "indices": [236, 244]}, {"text": "open", "indices": [245, 250]}], "symbols": [], "user_mentions": [], "urls": [{"url": "https://t.co/otvhXq1cme", "expanded_url": "https://framablog.org/2020/04/29/memorandum-covid-19-pour-du-libre-et-de-lopen-en-conscience-enseignements-et-impulsions-futures/", "display_url": "framablog.org/2020/04/29/mem\u2026", "indices": [111, 134]}]}, "metadata": {"iso_language_code": "fr", "result_type": "recent"}, "source": "<a href=\"https://yoda.nohost.me\" rel=\"nofollow\">SVTuxRSStoTwitter</a>", "in_reply_to_status_id": null, "in_reply_to_status_id_str": null, "in_reply_to_user_id": null, "in_reply_to_user_id_str": null, "in_reply_to_screen_name": null, "user": {"id": 1319730642, "id_str": "1319730642", "name": "Fr\u00e9d\u00e9ric V\u00e9ron", "screen_name": "SVTux", "location": "France", "description": "Science \ud83c\udf0d \ud83d\udef0\ufe0f\ud83d\ude80, cybers\u00e9curit\u00e9 \ud83d\udee1\ufe0f et jeux s\u00e9rieux \ud83d\udc7e\nMembre @framasoft, projet #Framinetest #Minetest\n\ud83d\udc49 https://t.co/uFbTB2vHHr & https://t.co/YtdhJ06TsC \ud83d\udd96", "url": "https://t.co/QpYfL4Sit0", "entities": {"url": {"urls": [{"url": "https://t.co/QpYfL4Sit0", "expanded_url": "https://www.svtux.fr", "display_url": "svtux.fr", "indices": [0, 23]}]}, "description": {"urls": [{"url": "https://t.co/uFbTB2vHHr", "expanded_url": "http://framapiaf.org/@Sangokuss", "display_url": "framapiaf.org/@Sangokuss", "indices": [101, 124]}, {"url": "https://t.co/YtdhJ06TsC", "expanded_url": "http://framasphere.org/u/svtux", "display_url": "framasphere.org/u/svtux", "indices": [127, 150]}]}}, "protected": false, "followers_count": 2596, "friends_count": 1000, "listed_count": 230, "created_at": "Mon Apr 01 06:01:53 +0000 2013", "favourites_count": 23163, "utc_offset": null, "time_zone": null, "geo_enabled": false, "verified": false, "statuses_count": 30405, "lang": null, "contributors_enabled": false, "is_translator": false, "is_translation_enabled": true, "profile_background_color": "000000", "profile_background_image_url": "http://abs.twimg.com/images/themes/theme13/bg.gif", "profile_background_image_url_https": "https://abs.twimg.com/images/themes/theme13/bg.gif", "profile_background_tile": false, "profile_image_url": "http://pbs.twimg.com/profile_images/1012021842876551171/JFJSXYyn_normal.jpg", "profile_image_url_https": "https://pbs.twimg.com/profile_images/1012021842876551171/JFJSXYyn_normal.jpg", "profile_banner_url": "https://pbs.twimg.com/profile_banners/1319730642/1545567892", "profile_link_color": "000000", "profile_sidebar_border_color": "000000", "profile_sidebar_fill_color": "000000", "profile_text_color": "000000", "profile_use_background_image": false, "has_extended_profile": true, "default_profile": false, "default_profile_image": false, "following": false, "follow_request_sent": false, "notifications": false, "translator_type": "none"}, "geo": null, "coordinates": null, "place": null, "contributors": null, "is_quote_status": false, "retweet_count": 0, "favorite_count": 0, "favorited": false, "retweeted": false, "possibly_sensitive": false, "lang": "fr"}
{"created_at": "Wed Apr 29 08:30:05 +0000 2020", "id": 1255414036927336449, "id_str": "1255414036927336449", "full_text": "\u00ab M\u00e9morandum Covid-19 pour du libre et de l\u2019open en conscience : enseignements et impulsions futures \u00bb, texte collectif soutenu par de multiples acteur\u22c5ices du libre (dont @framasoft ).\n\nhttps://t.co/lEB758I73P https://t.co/4RdAkAmcb3", "truncated": false, "display_text_range": [0, 210], "entities": {"hashtags": [], "symbols": [], "user_mentions": [{"screen_name": "framasoft", "name": "Framasoft", "id": 18230705, "id_str": "18230705", "indices": [172, 182]}], "urls": [{"url": "https://t.co/lEB758I73P", "expanded_url": "https://framablog.org/2020/04/29/memorandum-covid-19-pour-du-libre-et-de-lopen-en-conscience-enseignements-et-impulsions-futures/", "display_url": "framablog.org/2020/04/29/mem\u2026", "indices": [187, 210]}], "media": [{"id": 1255413725105917952, "id_str": "1255413725105917952", "indices": [211, 234], "media_url": "http://pbs.twimg.com/media/EWwgIasWkAAKqxR.jpg", "media_url_https": "https://pbs.twimg.com/media/EWwgIasWkAAKqxR.jpg", "url": "https://t.co/4RdAkAmcb3", "display_url": "pic.twitter.com/4RdAkAmcb3", "expanded_url": "https://twitter.com/framasoft/status/1255414036927336449/photo/1", "type": "photo", "sizes": {"medium": {"w": 1200, "h": 786, "resize": "fit"}, "thumb": {"w": 150, "h": 150, "resize": "crop"}, "small": {"w": 680, "h": 445, "resize": "fit"}, "large": {"w": 2048, "h": 1341, "resize": "fit"}}}]}, "extended_entities": {"media": [{"id": 1255413725105917952, "id_str": "1255413725105917952", "indices": [211, 234], "media_url": "http://pbs.twimg.com/media/EWwgIasWkAAKqxR.jpg", "media_url_https": "https://pbs.twimg.com/media/EWwgIasWkAAKqxR.jpg", "url": "https://t.co/4RdAkAmcb3", "display_url": "pic.twitter.com/4RdAkAmcb3", "expanded_url": "https://twitter.com/framasoft/status/1255414036927336449/photo/1", "type": "photo", "sizes": {"medium": {"w": 1200, "h": 786, "resize": "fit"}, "thumb": {"w": 150, "h": 150, "resize": "crop"}, "small": {"w": 680, "h": 445, "resize": "fit"}, "large": {"w": 2048, "h": 1341, "resize": "fit"}}}]}, "metadata": {"iso_language_code": "fr", "result_type": "recent"}, "source": "<a href=\"https://about.twitter.com/products/tweetdeck\" rel=\"nofollow\">TweetDeck</a>", "in_reply_to_status_id": null, "in_reply_to_status_id_str": null, "in_reply_to_user_id": null, "in_reply_to_user_id_str": null, "in_reply_to_screen_name": null, "user": {"id": 18230705, "id_str": "18230705", "name": "Framasoft", "screen_name": "framasoft", "location": "127.0.0.1", "description": "La route est longue mais la voie est libre\u2026\nBesoin d'aide ou d'entraide ? https://t.co/TsmZqyTArH\n\u26a0\ufe0f PAS DE SUPPORT SUR TWITTER ! \u26a0\ufe0f", "url": "http://t.co/DHJXjbWO8q", "entities": {"url": {"urls": [{"url": "http://t.co/DHJXjbWO8q", "expanded_url": "http://www.framasoft.org", "display_url": "framasoft.org", "indices": [0, 22]}]}, "description": {"urls": [{"url": "https://t.co/TsmZqyTArH", "expanded_url": "https://framacolibri.org/c/entraide/", "display_url": "framacolibri.org/c/entraide/", "indices": [74, 97]}]}}, "protected": false, "followers_count": 32095, "friends_count": 401, "listed_count": 1344, "created_at": "Fri Dec 19 01:15:26 +0000 2008", "favourites_count": 8088, "utc_offset": null, "time_zone": null, "geo_enabled": false, "verified": false, "statuses_count": 18979, "lang": null, "contributors_enabled": false, "is_translator": false, "is_translation_enabled": false, "profile_background_color": "000000", "profile_background_image_url": "http://abs.twimg.com/images/themes/theme6/bg.gif", "profile_background_image_url_https": "https://abs.twimg.com/images/themes/theme6/bg.gif", "profile_background_tile": false, "profile_image_url": "http://pbs.twimg.com/profile_images/1108993170120019968/25bIPYmm_normal.png", "profile_image_url_https": "https://pbs.twimg.com/profile_images/1108993170120019968/25bIPYmm_normal.png", "profile_banner_url": "https://pbs.twimg.com/profile_banners/18230705/1553239531", "profile_link_color": "0084B4", "profile_sidebar_border_color": "A4A4DF", "profile_sidebar_fill_color": "C4C4FF", "profile_text_color": "6B6880", "profile_use_background_image": true, "has_extended_profile": false, "default_profile": false, "default_profile_image": false, "following": true, "follow_request_sent": false, "notifications": false, "translator_type": "none"}, "geo": null, "coordinates": null, "place": null, "contributors": null, "is_quote_status": false, "retweet_count": 8, "favorite_count": 7, "favorited": false, "retweeted": false, "possibly_sensitive": false, "lang": "fr"}
